log
info:  message=Technician: 6117724 not found as a current shift technician, stack=NotFoundError: Technician: 6117724 not found as a current shift technician
info:  message=Technician: 6117724 not found as a current shift technician, stack=NotFoundError: Technician: 6117724 not found as a current shift technician
Error: Cannot read property of undefined
info:  message=Technician: 9343469 not found as a current shift technician, stack=NotFoundError: Technician: 9343469 not found as a current shift technician
info:  message=Technician: 7123917 not found as a current shift technician, stack=NotFoundError: Technician: 7123917 not found as a current shift technician
info:  message=Technician: 7104677 not found as a current shift technician, stack=NotFoundError: Technician: 7104677 not found as a current shift technician
info:  message=Technician: 6579280 not found as a current shift technician, stack=NotFoundError: Technician: 6579280 not found as a current shift technician
info:  message=Technician: 352095090949490 not found as a current group technician, stack=NotFoundError: Technician: 352095090949490 not found as a current at process._tickCallback (internal/process/next_tick.js:188:7), name=NotFoundError group technician
error:  message=Not Found, stack=NotFoundError: Not Found at Shim.applySegment (/home/vcap/app/node_modules/newrelic/lib/shim/shim.js:1396:20), name=NotFoundError, results=[]
info:  message=Technician: 5654831 not found as a current shift technician, stack=NotFoundError: Technician: 5654831 not found as a current shift technician
info:  message=Technician: 7104677 not found as a current shift technician, stack=NotFoundError: Technician: 7104677 not found as a current shift technician
info:  message=Technician: 7123917 not found as a current shift technician, stack=NotFoundError: Technician: 7123917 not found as a current shift technician
error:  message=socket hang up, stack=Error: socket hang up at createHangUpError (_http_client.js:331:15)
info:  message=Technician: 7123917 not found as a current shift technician, stack=NotFoundError: Technician: 7123917 not found as a current shift technician
info:  message=Technician: 7123917 not found as a current shift technician, stack=NotFoundError: Technician: 7123917 not found as a current shift technician
error:  message=Not Found, stack=NotFoundError: Not Found
info:  message=Technician: 352095090949490 not found as a current group technician, stack=NotFoundError: Technician: 352095090949490 not found as a current group technician
info:  message=Technician: 7111989 not found as a current shift technician, stack=NotFoundError: Technician: 7111989 not found as a current shift technician
error:  message=Not Found, stack=NotFoundError: Not Found at process._tickCallback (internal/process/next_tick.js:188:7), name=NotFoundError
